<svg width="36" height="36" viewBox="0 0 36 36" fill="none" xmlns="http://www.w3.org/2000/svg">
<path d="M8.86522 0.720215C7.47584 0.720215 6.44084 1.18428 5.82771 1.91271C5.21459 2.64115 5.04022 3.54678 5.04022 4.32021C5.04022 6.15959 6.03584 7.65303 7.40272 8.61772C7.82459 8.91584 8.27178 9.15209 8.75272 9.36022H0.720215V17.2802H2.16021V35.2802H33.8402V17.2802H35.2802V9.36022H27.2477C27.7287 9.15209 28.1758 8.91584 28.5977 8.61772C29.9646 7.65303 30.9602 6.15959 30.9602 4.32021C30.9602 3.54678 30.7858 2.64115 30.1727 1.91271C29.5596 1.18428 28.5246 0.720215 27.1352 0.720215C25.698 0.720215 24.5365 1.32771 23.6702 2.16021C22.804 2.99271 22.1824 4.04178 21.6002 5.04022C21.018 6.03865 20.4696 6.99771 19.8902 7.65022C19.3108 8.30272 18.7821 8.64022 18.0002 8.64022C17.2183 8.64022 16.6896 8.30272 16.1102 7.65022C15.5308 6.99771 14.9824 6.03865 14.4002 5.04022C13.818 4.04178 13.1965 2.99271 12.3302 2.16021C11.464 1.32771 10.3024 0.720215 8.86522 0.720215ZM8.86522 2.16021C9.9199 2.16021 10.6399 2.54271 11.3177 3.19521C11.9955 3.84772 12.5918 4.77865 13.1627 5.76022C13.7337 6.74178 14.2933 7.76272 15.0302 8.59522C15.0443 8.61209 15.0612 8.62334 15.0752 8.64022H12.2402C10.789 8.64022 9.2899 8.20709 8.21272 7.44772C7.13553 6.68834 6.48022 5.66178 6.48022 4.32021C6.48022 3.7774 6.60959 3.24022 6.93022 2.85771C7.25084 2.47521 7.77678 2.16021 8.86522 2.16021ZM27.1352 2.16021C28.2237 2.16021 28.7496 2.47521 29.0702 2.85771C29.3908 3.24022 29.5202 3.7774 29.5202 4.32021C29.5202 5.66178 28.8649 6.68834 27.7877 7.44772C26.7105 8.20709 25.2115 8.64022 23.7602 8.64022H20.9252C20.9393 8.62334 20.9562 8.61209 20.9702 8.59522C21.7071 7.76272 22.2668 6.74178 22.8377 5.76022C23.4087 4.77865 24.0049 3.84772 24.6827 3.19521C25.3605 2.54271 26.0805 2.16021 27.1352 2.16021ZM2.16021 10.8002H13.6802V15.8402H2.16021V10.8002ZM15.1202 10.8002H20.8802V16.4252C20.8802 16.4477 20.8802 16.4702 20.8802 16.4927C20.8802 16.5152 20.8802 16.5377 20.8802 16.5602C20.8746 16.6137 20.8746 16.6643 20.8802 16.7177V33.8402H15.1202V16.6952C15.1258 16.6502 15.1258 16.6052 15.1202 16.5602C15.123 16.5293 15.123 16.5012 15.1202 16.4702C15.1202 16.4477 15.1202 16.4252 15.1202 16.4027V10.8002ZM22.3202 10.8002H33.8402V15.8402H22.3202V10.8002ZM3.60021 17.2802H13.6802V33.8402H3.60021V17.2802ZM22.3202 17.2802H32.4002V33.8402H22.3202V17.2802Z" fill="#40D0BF"/>
</svg>
