<svg width="36" height="35" viewBox="0 0 36 35" fill="none" xmlns="http://www.w3.org/2000/svg">
<path d="M18.0002 0.720215C17.7032 0.720496 17.4368 0.903027 17.3294 1.18006L12.8899 12.6255L0.683638 13.2485C0.386076 13.2637 0.128732 13.4603 0.0359197 13.7432C-0.0568927 14.0262 0.033951 14.3369 0.264576 14.5254L9.76941 22.2963L6.64754 34.0877C6.57132 34.3752 6.67932 34.6797 6.91979 34.8547C7.15998 35.0296 7.48313 35.0389 7.73316 34.878L18.0002 28.2883L28.2672 34.878C28.5172 35.0389 28.8404 35.0296 29.0806 34.8547C29.3211 34.6797 29.4291 34.3752 29.3528 34.0877L26.231 22.2963L35.7358 14.5254C35.9664 14.3369 36.0573 14.0262 35.9645 13.7432C35.8716 13.4603 35.6143 13.2637 35.3167 13.2485L23.1105 12.6255L18.671 1.18006C18.5635 0.903027 18.2972 0.720496 18.0002 0.720215ZM18.0002 3.43006L21.9363 13.5804C22.0392 13.8453 22.2881 14.0247 22.5719 14.0388L33.3789 14.5915L24.9611 21.4751C24.7426 21.6537 24.6486 21.9433 24.7206 22.2162L27.4867 32.666L18.3897 26.8258C18.1523 26.6731 17.848 26.6731 17.6107 26.8258L8.51363 32.666L11.2797 22.2162C11.3517 21.9433 11.2578 21.6537 11.0393 21.4751L2.62145 14.5915L13.4285 14.0388C13.7123 14.0247 13.9612 13.8453 14.0641 13.5804L18.0002 3.43006Z" fill="#40D0BF"/>
</svg>
