<svg width="210" height="47" viewBox="0 0 210 47" fill="none" xmlns="http://www.w3.org/2000/svg">
<path d="M70.5336 6C70.2389 6 70 6.2389 70 6.5336C70 6.82829 70.2389 7.06719 70.5336 7.06719H79.8975C76.6334 8.02767 74.5276 11.1225 74.5276 13.4704V27.0909C74.5276 27.6432 74.9753 28.0909 75.5276 28.0909H76.8969C77.4492 28.0909 77.8969 27.6432 77.8969 27.0909V13.4704C77.8969 10.1621 79.7922 8.24111 81.161 8.24111C82.2311 8.24111 82.9999 7.90523 83.5964 7.42948C84.2266 6.92681 83.7464 6 82.9402 6H70.5336Z" fill="#40536F"/>
<path d="M89.5843 27.504C89.5843 27.8281 89.8471 28.0909 90.1713 28.0909H98.4289C100.008 28.0909 103.167 26.917 103.167 24.8893V22.0079C103.167 19.9802 99.4818 18.6996 97.4812 18.6996H94.1119C92.8484 18.6996 91.7955 18.0593 91.7955 16.9921V14.9644C91.7955 14.2174 92.3219 13.1502 94.1119 13.1502H101.579C101.933 13.1502 102.219 12.8635 102.219 12.5099C102.219 12.1562 101.933 11.8696 101.579 11.8696H94.3225C90.532 11.8696 88.742 13.8972 88.742 14.9644V16.9921C88.742 18.3794 91.0584 19.9802 93.9013 19.9802H97.4812C98.4289 19.9802 99.7977 20.9407 99.7977 22.4348V24.5692C99.7977 25.7431 98.7448 26.917 97.4812 26.917H90.1713C89.8471 26.917 89.5843 27.1798 89.5843 27.504Z" fill="#40536F"/>
<path fill-rule="evenodd" clip-rule="evenodd" d="M109.809 13.1502C109.455 13.1502 109.169 12.8635 109.169 12.5099C109.169 12.1562 109.455 11.8696 109.809 11.8696H116.013C118.961 11.8696 121.593 13.1502 121.593 14.9644V27.0909C121.593 27.6432 121.145 28.0909 120.593 28.0909H111.906C107.8 28.0909 106.958 25.6364 106.958 24.3557V22.0079C106.958 19.5534 109.8 17.6324 112.222 17.6324H117.224C117.776 17.6324 118.224 17.1847 118.224 16.6324V15.3913C118.224 14.5375 117.276 13.1502 116.013 13.1502H109.809ZM117.224 26.917C117.776 26.917 118.224 26.4693 118.224 25.917V19.913C118.224 19.3608 117.776 18.913 117.224 18.913H113.907C111.485 18.913 110.222 19.7668 110.222 22.0079V24.3557C110.222 26.0632 112.222 26.917 113.907 26.917H117.224Z" fill="#40536F"/>
<path d="M132.799 28.0909C133.123 28.0909 133.386 27.8281 133.386 27.504C133.386 27.1798 133.123 26.917 132.799 26.917H132.228C129.911 26.917 128.858 25.9565 128.858 23.9289V7C128.858 6.44772 128.411 6 127.858 6H126.278C125.726 6 125.278 6.44772 125.278 7V23.9289C125.278 26.17 127.805 28.0909 131.28 28.0909H132.799Z" fill="#40536F"/>
<path fill-rule="evenodd" clip-rule="evenodd" d="M139.817 13.1502C139.464 13.1502 139.177 12.8635 139.177 12.5099C139.177 12.1562 139.464 11.8696 139.817 11.8696H146.021C148.969 11.8696 151.601 13.1502 151.601 14.9644V27.0909C151.601 27.6432 151.154 28.0909 150.601 28.0909H141.915C137.808 28.0909 136.966 25.6364 136.966 24.3557V22.0079C136.966 19.5534 139.809 17.6324 142.23 17.6324H147.232C147.784 17.6324 148.232 17.1847 148.232 16.6324V15.3913C148.232 14.5375 147.284 13.1502 146.021 13.1502H139.817ZM147.232 26.917C147.784 26.917 148.232 26.4693 148.232 25.917V19.913C148.232 19.3608 147.784 18.913 147.232 18.913H143.915C141.493 18.913 140.23 19.7668 140.23 22.0079V24.3557C140.23 26.0632 142.23 26.917 143.915 26.917H147.232Z" fill="#40536F"/>
<path fill-rule="evenodd" clip-rule="evenodd" d="M156.287 6C155.734 6 155.287 6.44772 155.287 7V23.502C155.287 25.9565 157.182 28.0909 161.394 28.0909H163.605C167.395 28.0909 170.028 26.5968 170.028 23.9289V15.6047C170.028 13.1502 167.29 11.8696 163.184 11.8696H159.761C159.209 11.8696 158.761 11.4219 158.761 10.8696V7C158.761 6.44771 158.314 6 157.761 6H156.287ZM158.761 23.502V14.1502C158.761 13.5979 159.209 13.1502 159.761 13.1502H162.868C166.132 13.1502 166.763 14.3241 166.763 16.7787V23.502C166.763 25.6364 165.5 26.917 163.605 26.917H161.394C159.709 26.917 158.761 25.5296 158.761 23.502Z" fill="#40536F"/>
<path d="M179.925 28.0909C176.134 28.0909 173.502 26.5968 173.502 23.9289V12.9763C173.502 12.424 173.95 11.9763 174.502 11.9763H175.766C176.319 11.9763 176.766 12.424 176.766 12.9763V23.502C176.766 25.6364 178.03 26.917 179.925 26.917H181.128C181.452 26.917 181.715 27.1798 181.715 27.504C181.715 27.8281 181.452 28.0909 181.128 28.0909H179.925Z" fill="#40536F"/>
<path d="M185.979 28.0909C185.427 28.0909 184.979 27.6432 184.979 27.0909V12.8696C184.979 12.3173 185.427 11.8696 185.979 11.8696H202.563C207.196 11.8696 209.091 13.5771 209.091 15.498V27.0909C209.091 27.6432 208.643 28.0909 208.091 28.0909H206.722C206.169 28.0909 205.722 27.6432 205.722 27.0909V15.8182C205.722 13.8972 203.826 12.9368 202.142 12.9368H201.089C199.299 12.9368 198.878 13.4704 198.878 14.6443V27.0909C198.878 27.6432 198.43 28.0909 197.878 28.0909H196.508C195.956 28.0909 195.508 27.6432 195.508 27.0909V14.6443C195.508 13.4704 195.087 12.9368 193.297 12.9368H190.559C188.77 12.9368 188.348 13.4704 188.348 14.6443V27.0909C188.348 27.6432 187.901 28.0909 187.348 28.0909H185.979Z" fill="#40536F"/>
<path d="M173.502 7.34783C173.502 7.90011 173.95 8.34783 174.502 8.34783H175.766C176.319 8.34783 176.766 7.90011 176.766 7.34783V7.21344C176.766 6.66115 176.319 6.21344 175.766 6.21344H174.502C173.95 6.21344 173.502 6.66115 173.502 7.21344V7.34783Z" fill="#40536F"/>
<path d="M73.0007 39.8636C72.9838 39.0712 73.2677 38.3931 73.8522 37.8295C74.4423 37.2658 75.1504 36.9896 75.9766 37.0007C76.9044 37.0007 77.6465 37.3479 78.2028 38.0422C78.2715 38.1279 78.2543 38.2517 78.169 38.3213L77.6843 38.7174C77.5904 38.7942 77.4514 38.7753 77.3714 38.6843C76.9979 38.2595 76.5273 38.0471 75.9597 38.0471C75.4314 38.0471 75.0015 38.2173 74.6699 38.5577C74.3383 38.8982 74.1725 39.3335 74.1725 39.8636C74.1725 40.405 74.3439 40.8486 74.6868 41.1946C75.0296 41.5406 75.4764 41.7136 76.0272 41.7136C76.6475 41.7136 77.1229 41.5029 77.4533 41.0813C77.4804 41.0467 77.494 41.0036 77.494 40.9598V40.7845C77.494 40.6689 77.3997 40.5752 77.2833 40.5752H76.1705C76.0541 40.5752 75.9597 40.4815 75.9597 40.3659V39.805C75.9597 39.6895 76.0541 39.5958 76.1705 39.5958H78.4214C78.5378 39.5958 78.6321 39.6895 78.6321 39.805V41.1728C78.6321 41.2091 78.6228 41.2448 78.6042 41.2759C78.3477 41.7058 77.9945 42.0526 77.5446 42.3164C77.0838 42.5898 76.5611 42.7265 75.9766 42.7265C75.1617 42.7433 74.4591 42.4698 73.869 41.9062C73.2789 41.3369 72.9895 40.6561 73.0007 39.8636Z" fill="#40536F"/>
<path d="M85.731 42.6261C85.6146 42.6261 85.5202 42.5324 85.5202 42.4168V37.3104C85.5202 37.1949 85.6146 37.1012 85.731 37.1012H86.4475C86.5639 37.1012 86.6583 37.1949 86.6583 37.3104V42.4168C86.6583 42.5324 86.5639 42.6261 86.4475 42.6261H85.731Z" fill="#40536F"/>
<path d="M94.0443 42.6261C93.9279 42.6261 93.8336 42.5324 93.8336 42.4168V37.3104C93.8336 37.1949 93.9279 37.1012 94.0443 37.1012H97.2815C97.3979 37.1012 97.4923 37.1949 97.4923 37.3104V37.9132C97.4923 38.0287 97.3979 38.1224 97.2815 38.1224H95.1824C95.066 38.1224 94.9717 38.2161 94.9717 38.3317V39.2944C94.9717 39.41 95.066 39.5037 95.1824 39.5037H96.8263C96.9427 39.5037 97.0371 39.5974 97.0371 39.713V40.3157C97.0371 40.4313 96.9427 40.5249 96.8263 40.5249H95.1824C95.066 40.5249 94.9717 40.6186 94.9717 40.7342V42.4168C94.9717 42.5324 94.8773 42.6261 94.7609 42.6261H94.0443Z" fill="#40536F"/>
<path d="M105.713 42.6261C105.597 42.6261 105.502 42.5324 105.502 42.4168V38.3317C105.502 38.2161 105.408 38.1224 105.292 38.1224H103.934C103.818 38.1224 103.724 38.0287 103.724 37.9132V37.3104C103.724 37.1949 103.818 37.1012 103.934 37.1012H108.217C108.333 37.1012 108.428 37.1949 108.428 37.3104V37.9132C108.428 38.0287 108.333 38.1224 108.217 38.1224H106.851C106.735 38.1224 106.64 38.2161 106.64 38.3317V42.4168C106.64 42.5324 106.546 42.6261 106.43 42.6261H105.713Z" fill="#40536F"/>
<path d="M114.789 41.6613C114.73 41.5737 114.755 41.4567 114.84 41.3933L115.304 41.0462C115.398 40.9759 115.531 40.9965 115.607 41.0856C115.969 41.5099 116.381 41.722 116.841 41.722C117.088 41.722 117.282 41.669 117.422 41.563C117.563 41.4514 117.633 41.3007 117.633 41.1109C117.633 40.9547 117.585 40.8347 117.49 40.751C117.394 40.6617 117.206 40.5529 116.925 40.4245L116.326 40.1566C115.427 39.7604 114.978 39.2302 114.978 38.5661C114.978 38.0973 115.152 37.7206 115.5 37.436C115.849 37.1458 116.29 37.0007 116.824 37.0007C117.24 37.0007 117.605 37.0956 117.92 37.2853C118.183 37.4393 118.399 37.6421 118.568 37.8937C118.626 37.9797 118.601 38.0937 118.519 38.1567L118.064 38.5048C117.968 38.5788 117.83 38.5551 117.751 38.4628C117.49 38.1578 117.181 38.0052 116.824 38.0052C116.622 38.0052 116.456 38.0527 116.326 38.1476C116.197 38.2424 116.133 38.3736 116.133 38.541C116.133 38.6805 116.178 38.7949 116.267 38.8842C116.363 38.9679 116.534 39.0656 116.782 39.1772L117.414 39.4534C117.892 39.6655 118.24 39.8971 118.459 40.1483C118.679 40.3938 118.788 40.7007 118.788 41.0691C118.788 41.5658 118.605 41.9676 118.24 42.2745C117.875 42.5759 117.408 42.7265 116.841 42.7265C116.374 42.7265 115.953 42.6177 115.576 42.4001C115.258 42.2134 114.996 41.9671 114.789 41.6613Z" fill="#40536F"/>
<path d="M141.14 40.0459C141.234 40.112 141.257 40.2404 141.192 40.3346L141.09 40.4831C140.821 40.8694 140.61 41.1621 140.455 41.3612C140.394 41.4404 140.394 41.5517 140.458 41.629L141 42.2839C141.113 42.4205 141.015 42.6261 140.837 42.6261H140.052C139.988 42.6261 139.928 42.5978 139.888 42.5492L139.744 42.3737C139.672 42.2859 139.543 42.272 139.447 42.3341C139.045 42.5957 138.598 42.7265 138.105 42.7265C137.566 42.7265 137.125 42.5842 136.782 42.2996C136.445 42.015 136.276 41.6439 136.276 41.1863C136.276 40.8961 136.357 40.6282 136.52 40.3826C136.661 40.1749 136.899 39.9337 137.234 39.659C137.324 39.5859 137.339 39.4559 137.274 39.3607C137.03 39.0024 136.908 38.6566 136.908 38.3234C136.908 37.9271 137.04 37.609 137.304 37.369C137.569 37.1235 137.917 37.0007 138.35 37.0007C138.76 37.0007 139.094 37.1151 139.353 37.3439C139.611 37.5672 139.741 37.8574 139.741 38.2145C139.741 38.4768 139.67 38.7196 139.53 38.9428C139.414 39.1276 139.234 39.3277 138.99 39.5431C138.903 39.62 138.891 39.7517 138.965 39.8407L139.473 40.4497C139.562 40.5554 139.727 40.5494 139.806 40.4368C139.896 40.3082 140.004 40.1534 140.129 39.9725C140.189 39.8925 140.249 39.8096 140.31 39.7238C140.378 39.6269 140.512 39.6022 140.609 39.6706L141.14 40.0459ZM137.928 38.3401C137.928 38.4993 138.034 38.7099 138.246 38.9717C138.253 38.9793 138.263 38.9816 138.272 38.9773C138.273 38.9766 138.274 38.9758 138.276 38.975C138.572 38.7411 138.721 38.5239 138.721 38.3234C138.721 38.0834 138.591 37.9634 138.333 37.9634C138.209 37.9634 138.111 37.9969 138.038 38.0638C137.965 38.1308 137.928 38.2229 137.928 38.3401ZM138.789 41.5437C138.886 41.482 138.897 41.3493 138.824 41.2607L138.13 40.4271C138.056 40.3379 137.922 40.3249 137.835 40.4019C137.692 40.5289 137.591 40.6341 137.532 40.7175C137.453 40.8235 137.414 40.9435 137.414 41.0774C137.414 41.2728 137.484 41.4318 137.625 41.5546C137.765 41.6718 137.948 41.7304 138.173 41.7304C138.387 41.7304 138.592 41.6682 138.789 41.5437Z" fill="#40536F"/>
<path d="M157.812 42.6261C157.696 42.6261 157.601 42.5324 157.601 42.4168V37.3104C157.601 37.1949 157.696 37.1012 157.812 37.1012H159.422C160.31 37.09 161.041 37.3439 161.614 37.8629C162.188 38.3764 162.469 39.0377 162.457 39.8469C162.469 40.6505 162.185 41.3174 161.606 41.8476C161.027 42.3778 160.299 42.6373 159.422 42.6261H157.812ZM158.74 41.3955C158.74 41.5111 158.834 41.6048 158.95 41.6048H159.414C159.976 41.6048 160.428 41.4458 160.771 41.1277C161.114 40.804 161.286 40.3771 161.286 39.8469C161.286 39.3111 161.117 38.8898 160.78 38.5829C160.442 38.2759 159.987 38.1224 159.414 38.1224H158.95C158.834 38.1224 158.74 38.2161 158.74 38.3317V41.3955Z" fill="#40536F"/>
<path d="M169.534 42.6261C169.418 42.6261 169.323 42.5324 169.323 42.4168V37.3104C169.323 37.1949 169.418 37.1012 169.534 37.1012H172.855C172.972 37.1012 173.066 37.1949 173.066 37.3104V37.9132C173.066 38.0287 172.972 38.1224 172.855 38.1224H170.672C170.556 38.1224 170.461 38.2161 170.461 38.3317V39.0349C170.461 39.1505 170.556 39.2442 170.672 39.2442H172.164C172.281 39.2442 172.375 39.3379 172.375 39.4534V39.9976C172.375 40.1132 172.281 40.2068 172.164 40.2068H170.672C170.556 40.2068 170.461 40.3005 170.461 40.4161V41.3955C170.461 41.5111 170.556 41.6048 170.672 41.6048H172.957C173.073 41.6048 173.167 41.6985 173.167 41.8141V42.4168C173.167 42.5324 173.073 42.6261 172.957 42.6261H169.534Z" fill="#40536F"/>
<path d="M179.613 39.8636C179.602 39.0712 179.891 38.3931 180.481 37.8295C181.071 37.2602 181.771 36.984 182.581 37.0007C183.109 37.0007 183.587 37.1235 184.014 37.369C184.39 37.578 184.697 37.8589 184.933 38.2117C184.993 38.3015 184.966 38.4211 184.877 38.4833L184.354 38.85C184.256 38.9188 184.12 38.8915 184.048 38.7965C183.665 38.2969 183.176 38.0471 182.581 38.0471C182.063 38.0471 181.634 38.2201 181.291 38.5661C180.953 38.9121 180.785 39.3474 180.785 39.872C180.785 40.3966 180.953 40.8291 181.291 41.1695C181.634 41.5099 182.063 41.6802 182.581 41.6802C183.176 41.6802 183.665 41.4303 184.048 40.9307C184.12 40.8357 184.256 40.8085 184.354 40.8773L184.879 41.2451C184.967 41.3068 184.995 41.4252 184.936 41.5149C184.704 41.8687 184.399 42.1526 184.022 42.3666C183.589 42.6066 183.106 42.7265 182.572 42.7265C181.757 42.7433 181.055 42.4698 180.465 41.9062C179.88 41.3369 179.596 40.6561 179.613 39.8636Z" fill="#40536F"/>
<path d="M191.541 39.8636C191.529 39.0767 191.816 38.3987 192.4 37.8295C192.991 37.2602 193.687 36.984 194.491 37.0007C195.295 36.984 195.992 37.2602 196.582 37.8295C197.178 38.3987 197.47 39.0767 197.459 39.8636C197.47 40.6505 197.178 41.3286 196.582 41.8978C195.992 42.467 195.295 42.7433 194.491 42.7265C193.687 42.7433 192.991 42.467 192.4 41.8978C191.816 41.3286 191.529 40.6505 191.541 39.8636ZM196.287 39.8636C196.287 39.339 196.115 38.9065 195.773 38.5661C195.435 38.2201 195.011 38.0471 194.5 38.0471C193.983 38.0471 193.555 38.2173 193.218 38.5577C192.881 38.8982 192.712 39.3335 192.712 39.8636C192.712 40.3938 192.881 40.8291 193.218 41.1695C193.555 41.5099 193.983 41.6802 194.5 41.6802C195.011 41.6802 195.435 41.5099 195.773 41.1695C196.115 40.8291 196.287 40.3938 196.287 39.8636Z" fill="#40536F"/>
<path d="M208.778 42.2943C208.879 42.4327 208.779 42.6261 208.607 42.6261H207.845C207.777 42.6261 207.714 42.5944 207.675 42.5406L206.359 40.7611C206.32 40.7074 206.257 40.6756 206.189 40.6756H205.672C205.556 40.6756 205.462 40.7693 205.462 40.8849V42.4168C205.462 42.5324 205.367 42.6261 205.251 42.6261H204.534C204.418 42.6261 204.324 42.5324 204.324 42.4168V37.3104C204.324 37.1949 204.418 37.1012 204.534 37.1012H206.414C206.999 37.1012 207.479 37.2658 207.856 37.5951C208.232 37.9243 208.421 38.354 208.421 38.8842C208.421 39.2302 208.333 39.5427 208.159 39.8218C208.032 40.0276 207.866 40.1986 207.659 40.3348C207.551 40.4066 207.512 40.5539 207.589 40.6591L208.778 42.2943ZM205.672 38.0973C205.556 38.0973 205.462 38.191 205.462 38.3066V39.4702C205.462 39.5858 205.556 39.6795 205.672 39.6795H206.414C206.678 39.6795 206.883 39.6069 207.03 39.4618C207.181 39.3167 207.257 39.1242 207.257 38.8842C207.257 38.6498 207.179 38.4601 207.021 38.315C206.869 38.1699 206.667 38.0973 206.414 38.0973H205.672Z" fill="#40536F"/>
<path d="M14.656 41.2277C14.642 41.2319 14.6333 41.2119 14.6464 41.2054C18.5737 39.2542 20.915 39.1307 21.8597 40.1347C22.8146 41.1496 23.292 43.0599 24.3066 43.4778C25.9776 44.1661 26.4158 41.7759 25.9776 37.6871C25.8049 36.0753 24.3066 35.0007 22.6952 34.8217C20.8451 34.616 18.9625 34.1084 18.9354 31.1204C18.9354 26.8222 21.1956 24.2977 25.7986 21.6285C25.9863 21.5196 26.064 21.2515 26.0906 20.8525C26.095 20.7867 26.1529 20.7354 26.2188 20.7383C31.3036 20.9631 32.5249 21.495 32.6999 22.7479C32.7139 22.8481 32.5984 22.9096 32.5122 22.8566C31.9297 22.4987 31.3575 22.528 30.9311 23.0612C29.663 24.6468 32.1844 27.6579 35.1087 23.5388C35.3124 23.2519 35.0694 22.9099 35.0502 22.0358C35.0489 21.9743 35.0991 21.9221 35.1604 21.9167C47.4567 20.824 47.7894 34.8406 38.6023 32.8851C38.5273 32.8691 38.4508 32.9272 38.4503 33.0039C38.4109 38.9596 36.0404 40.717 30.0684 42.691C30.0475 42.6979 30.028 42.711 30.0138 42.7278C27.0383 46.2244 24.3005 46.3354 21.8597 43.1793C19.9422 40.9658 18.659 40.0339 14.656 41.2277Z" fill="#40536F"/>
<path fill-rule="evenodd" clip-rule="evenodd" d="M5.74624 40.6861C5.74624 40.6506 5.72973 40.6175 5.70515 40.5919C5.485 40.3627 5.58941 40.0154 5.92533 40.0154C6.26125 40.0154 6.36565 40.3627 6.14551 40.5919C6.12092 40.6175 6.10442 40.6506 6.10442 40.6861V40.9757C6.10442 41.0396 6.1549 41.0917 6.21828 41.0995C7.21818 41.2224 7.80894 42.3381 8.84941 42.463C10.3414 42.6421 10.2187 42.5244 11.535 41.866C12.0043 41.6313 12.6934 41.3234 13.464 41.4415C13.4886 41.4453 13.5098 41.4684 13.5174 41.4922C13.5408 41.5649 13.4212 41.8356 13.3451 41.842C12.2068 41.9386 11.2177 42.836 10.7592 43.2391C8.78973 44.9703 8.03587 45.2739 6.99983 45.3285C6.69658 45.3444 6.78944 45.6073 7.05951 45.7464C8.04673 46.3819 7.99055 46.6427 7.20201 46.9899C7.18703 46.9965 7.17042 47 7.15405 47H4.6966C4.68024 47 4.66362 46.9965 4.64864 46.9899C3.86011 46.6427 3.80393 46.3819 4.79115 45.7464C5.06122 45.6073 5.14923 45.3848 4.85083 45.3285C3.86371 45.1421 3.48952 44.8818 3.15303 44.2025C3.13255 44.1612 3.09069 44.1345 3.04455 44.1345H2.87397C2.84065 44.1345 2.80846 44.1492 2.785 44.1729C2.14211 44.8212 1.51934 44.1947 1.9997 43.6789C2.0639 43.6099 2.05106 43.4894 1.96445 43.4523C0.36209 42.7667 -0.226006 42.3629 0.0764437 41.6869C0.218809 41.3669 0.553857 41.1496 0.971823 41.1496H2.10575C2.7624 41.3091 2.95734 41.7251 3.11909 42.5475C3.14083 42.658 3.29308 42.6853 3.35474 42.591C3.92272 41.7226 4.71084 41.1773 5.63228 41.0974C5.6959 41.0919 5.74624 41.0396 5.74624 40.9757V40.6861ZM2.556 43.0189C2.57244 43.1126 2.47273 43.1764 2.39104 43.1277C1.40648 42.5414 0.78206 41.9227 1.21774 41.6434C1.23483 41.6324 1.25549 41.6272 1.27579 41.6272H1.67183C1.69218 41.6272 1.71215 41.6322 1.72955 41.6428C2.06578 41.847 2.44539 42.3889 2.556 43.0189Z" fill="#40536F"/>
<path d="M29.3963 4.98889C29.3903 5.05755 29.4834 5.079 29.5079 5.01459C29.6032 4.76446 29.6927 4.52431 29.7806 4.29822C30.3257 2.8957 30.8074 2.03394 32.1947 2.68371C32.2931 2.72977 32.4041 2.63457 32.3692 2.53171C31.0191 -1.44495 29.9768 -0.648229 29.4623 4.29822C29.4393 4.52011 29.4172 4.75035 29.3963 4.98889Z" fill="#40536F"/>
<path d="M29.5079 5.01459C29.4834 5.079 29.3903 5.05755 29.3963 4.98889C29.4172 4.75035 29.4393 4.52011 29.4623 4.29822H28.9925C28.9315 4.29822 28.8803 4.34424 28.8738 4.40491L28.7641 5.43113C28.7419 5.63867 28.9011 5.82116 29.1097 5.82726L29.6171 5.84209C29.7828 5.84694 29.9302 5.73733 29.9733 5.57718L30.2771 4.44865C30.2975 4.37279 30.2404 4.29822 30.1618 4.29822H29.7806C29.6927 4.52431 29.6032 4.76446 29.5079 5.01459Z" fill="#40536F"/>
<path fill-rule="evenodd" clip-rule="evenodd" d="M32.0641 23.5307C31.694 23.3473 31.218 23.4978 31.1698 24.0761C31.0786 25.1707 33.0796 25.5685 34.3926 23.5388C34.7113 23.046 34.6964 22.0509 34.0469 21.2906C33.9789 21.2111 34.0275 21.0789 34.1316 21.0689C36.4908 20.8432 37.0841 19.7959 34.3234 15.2634C34.2947 15.2162 34.3011 15.1538 34.3383 15.113C34.8593 14.5413 34.9195 13.796 34.2732 12.8213L34.2605 12.7368L34.2603 12.7355C34.1553 12.0408 34.0925 11.625 34.2716 10.6531C34.2726 10.6472 34.2743 10.641 34.2762 10.6354C34.7227 9.33248 34.0825 9.33886 32.0231 10.1364C32.0103 10.1414 31.9995 10.1247 32.0104 10.1162L32.9386 9.39402C32.9853 9.35766 32.9984 9.29259 32.9687 9.24139C32.0097 7.59109 30.4399 6.10703 29.6778 6.10706H28.7229C27.5066 6.10706 26.5237 7.50268 25.4765 9.17728C25.4311 9.24989 25.3261 9.25241 25.2764 9.18265C24.6019 8.23549 24.1089 7.7495 22.7385 7.72021C22.658 7.71849 22.6005 7.797 22.628 7.87268C22.8737 8.54912 23.2339 8.89401 23.9445 9.40451C23.983 9.43222 24.0018 9.48014 23.9923 9.52666C23.8354 10.2923 23.761 10.9658 23.6916 11.5934C23.5595 12.7895 23.4457 13.8188 22.8146 15.002C22.3388 15.7753 23.4631 16.9043 23.8844 15.5537C23.8872 15.5445 23.8891 15.5342 23.8896 15.5246C23.9245 14.8899 23.9756 14.5176 24.4571 14.2185C24.5402 14.1669 24.638 14.245 24.62 14.3411C23.7448 19.0098 24.4465 19.7182 26.0816 20.1321C26.0917 20.1346 26.1025 20.1359 26.1129 20.1357C30.8551 20.064 33.2588 20.9135 33.4377 22.2851C33.57 23.2999 33.1698 23.6383 32.3634 24.1954C31.9456 24.5088 31.4448 23.8165 31.9987 23.7188C32.1058 23.6999 32.1615 23.579 32.0641 23.5307ZM29.2204 9.40783C27.5619 8.71444 27.0934 9.13212 26.6635 10.4342C26.6591 10.4475 26.639 10.4432 26.6399 10.4292C26.7643 8.46241 27.1355 7.87919 29.2316 9.38624C29.2432 9.39455 29.2335 9.41332 29.2204 9.40783ZM23.0963 15.0438C22.7012 15.7353 23.3485 16.1066 23.6063 15.5392C23.9047 14.8826 23.335 14.6259 23.0963 15.0438ZM28.299 10.1162C29.9733 10.4292 29.9733 13.7519 29.1097 13.7519C27.1392 13.7519 27.3131 9.93193 28.299 10.1162ZM31.7784 13.9259C32.6999 13.9259 33.4377 12.0691 32.6999 11.5934C31.7784 10.9991 31.1405 13.7519 31.7784 13.9259Z" fill="#40536F"/>
</svg>
