<svg width="34" height="34" viewBox="0 0 34 34" fill="none" xmlns="http://www.w3.org/2000/svg">
<path d="M16.9999 0.439941C13.5068 0.439941 10.4834 2.53244 9.12492 5.52494C8.66367 5.47994 8.19961 5.46588 7.72992 5.50244C7.06336 5.55588 6.41086 5.6965 5.74992 5.92994C1.62399 7.384 -0.564139 11.929 0.889924 16.0549C1.61555 18.1165 3.28617 20.299 5.29992 21.8599C7.0943 23.2521 9.22055 24.1887 11.2399 23.8174L11.3524 24.9199L12.3199 24.4699C12.4099 24.6303 12.4859 24.754 12.5899 24.9424C13.0287 25.7412 13.5855 26.7621 14.1424 27.8224C14.6993 28.8828 15.2477 29.9796 15.6499 30.9049C16.0521 31.8303 16.2799 32.6628 16.2799 32.8399C16.2743 33.0621 16.3727 33.2731 16.5443 33.4137C16.713 33.5543 16.9409 33.6078 17.1574 33.5599C17.2306 33.5403 17.298 33.5093 17.3599 33.4699C17.374 33.4643 17.3909 33.4559 17.4049 33.4474C17.4471 33.4137 17.4837 33.3771 17.5174 33.3349C17.5709 33.2899 17.6159 33.2365 17.6524 33.1774C17.6862 33.1071 17.7087 33.0312 17.7199 32.9524C17.7227 32.9159 17.7227 32.8765 17.7199 32.8399V32.5699C17.7227 32.5334 17.7227 32.494 17.7199 32.4574C17.7199 32.449 17.7762 32.1481 17.8999 31.7599C18.0237 31.3718 18.1952 30.8768 18.4174 30.3199C18.8646 29.2034 19.4721 27.8337 20.0824 26.4949C20.6927 25.1562 21.3115 23.8428 21.7924 22.8274C21.9387 22.5181 22.0343 22.2903 22.1524 22.0399L23.0749 22.4674L23.2099 21.1849C25.1365 21.3424 27.1221 20.4031 28.8124 19.0699C30.8515 17.4584 32.5221 15.2393 33.2449 13.1299C34.6906 8.91119 32.4462 4.29307 28.2274 2.84744C27.2599 2.51557 26.2671 2.38338 25.3024 2.41994C24.4981 2.45088 23.7106 2.61119 22.9624 2.86994C21.4099 1.3765 19.3174 0.439941 16.9999 0.439941ZM16.9999 1.87994C19.084 1.87994 20.9515 2.76588 22.2649 4.17494C22.2931 4.20869 22.3212 4.23682 22.3549 4.26494C23.4996 5.539 24.1999 7.2265 24.1999 9.07994C24.1999 11.0712 23.3534 13.7656 21.9949 15.8749C21.3987 16.8003 20.7265 17.6074 19.9924 18.2149C19.9868 18.2178 19.9755 18.2121 19.9699 18.2149C19.894 18.2543 19.8237 18.3078 19.7674 18.3724C19.7421 18.3921 19.7196 18.4146 19.6999 18.4399C19.6915 18.4456 19.6859 18.4568 19.6774 18.4624C18.8252 19.0924 17.9084 19.4524 16.9999 19.4524C16.3727 19.4524 15.7399 19.2724 15.1324 18.9574C13.9765 18.3584 12.8965 17.2587 12.0049 15.8749C10.6465 13.7656 9.79992 11.0712 9.79992 9.07994C9.79992 8.26713 9.93492 7.49088 10.1824 6.76244C10.1909 6.73994 10.1993 6.71744 10.2049 6.69494C10.278 6.5965 10.3259 6.47838 10.3399 6.35744C10.3399 6.33494 10.3399 6.31244 10.3399 6.28994C11.4255 3.69119 14.0018 1.87994 16.9999 1.87994ZM25.3474 3.85994C26.1377 3.83182 26.959 3.94713 27.7549 4.21994C31.2368 5.41244 33.0874 9.17557 31.8949 12.6574C31.2987 14.3984 29.7377 16.5021 27.9124 17.9449C26.0871 19.3878 24.0649 20.1274 22.4899 19.5874C22.0793 19.4468 21.7109 19.2162 21.3649 18.9124C22.0512 18.2599 22.6727 17.4949 23.2099 16.6624C24.7174 14.3224 25.6399 11.4621 25.6399 9.07994C25.6399 7.20119 25.0212 5.46025 23.9974 4.03994C24.4418 3.93025 24.8834 3.87682 25.3474 3.85994ZM8.65242 6.91994C8.47242 7.61463 8.35992 8.33182 8.35992 9.07994C8.35992 11.4621 9.28242 14.3224 10.7899 16.6624C11.6309 17.9674 12.6743 19.1262 13.8724 19.9024C13.2762 21.0724 12.4746 21.9162 11.4874 22.2649C9.95461 22.8049 7.97461 22.1074 6.17742 20.7124C4.38024 19.3174 2.83617 17.2784 2.23992 15.5824C1.04461 12.1906 2.83055 8.47525 6.22242 7.27994C7.03524 6.99307 7.84524 6.88057 8.65242 6.91994ZM20.2174 19.8349C20.3946 20.0009 20.583 20.1443 20.7799 20.2849L20.0374 21.0724L20.8474 21.4549C20.7321 21.694 20.628 21.8965 20.4874 22.1974C20.0065 23.2128 19.3934 24.5374 18.7774 25.8874C18.4062 26.7003 18.0546 27.5131 17.7199 28.2949V22.0399H18.7999L18.3499 20.7124C19.0109 20.5353 19.6296 20.2287 20.2174 19.8349ZM15.1549 20.5549C15.3152 20.614 15.4868 20.6674 15.6499 20.7124L15.1999 22.0399H16.2799V28.8349C16.0099 28.2781 15.7146 27.7015 15.4249 27.1474C14.8596 26.0703 14.2887 25.0437 13.8499 24.2449C13.7655 24.0931 13.7205 23.9974 13.6474 23.8624L14.3899 23.5249L13.5799 22.6474C14.2212 22.0793 14.7443 21.3678 15.1549 20.5549Z" fill="#40D0BF"/>
</svg>
